EESchema Schematic File Version 4
EELAYER 30 0
EELAYER END
$Descr A4 11693 8268
encoding utf-8
Sheet 4 7
Title ""
Date ""
Rev ""
Comp ""
Comment1 ""
Comment2 ""
Comment3 ""
Comment4 ""
$EndDescr
$Comp
L Timer:LM555xM U12
U 1 1 605A45A6
P 1625 1575
F 0 "U12" H 1775 1975 50  0000 C CNN
F 1 "LM555xM" H 1625 1575 50  0000 C CNN
F 2 "Package_SO:SOIC-8_3.9x4.9mm_P1.27mm" H 2475 1175 50  0001 C CNN
F 3 "http://www.ti.com/lit/ds/symlink/lm555.pdf" H 2475 1175 50  0001 C CNN
	1    1625 1575
	1    0    0    -1  
$EndComp
$Comp
L power:+5V #PWR0106
U 1 1 605A51EC
P 1625 1100
F 0 "#PWR0106" H 1625 950 50  0001 C CNN
F 1 "+5V" H 1640 1273 50  0000 C CNN
F 2 "" H 1625 1100 50  0001 C CNN
F 3 "" H 1625 1100 50  0001 C CNN
	1    1625 1100
	1    0    0    -1  
$EndComp
$Comp
L power:GND #PWR0107
U 1 1 605A576C
P 1625 2050
F 0 "#PWR0107" H 1625 1800 50  0001 C CNN
F 1 "GND" H 1630 1877 50  0000 C CNN
F 2 "" H 1625 2050 50  0001 C CNN
F 3 "" H 1625 2050 50  0001 C CNN
	1    1625 2050
	1    0    0    -1  
$EndComp
Wire Wire Line
	1625 1100 1625 1175
Wire Wire Line
	1625 1975 1625 2050
NoConn ~ 1125 1575
Wire Wire Line
	2125 1775 2125 1950
Wire Wire Line
	2125 2025 950  2025
Wire Wire Line
	950  2025 950  1375
Wire Wire Line
	950  1375 1125 1375
$Comp
L power:+5V #PWR0108
U 1 1 605A75C4
P 775 1750
F 0 "#PWR0108" H 775 1600 50  0001 C CNN
F 1 "+5V" H 790 1923 50  0000 C CNN
F 2 "" H 775 1750 50  0001 C CNN
F 3 "" H 775 1750 50  0001 C CNN
	1    775  1750
	1    0    0    -1  
$EndComp
Wire Wire Line
	1125 1775 775  1775
Wire Wire Line
	775  1775 775  1750
Text GLabel 2125 1375 2    50   Output ~ 0
clock_flipflop1
$Comp
L power:+5V #PWR0109
U 1 1 605A8BE8
P 2900 1150
F 0 "#PWR0109" H 2900 1000 50  0001 C CNN
F 1 "+5V" H 2915 1323 50  0000 C CNN
F 2 "" H 2900 1150 50  0001 C CNN
F 3 "" H 2900 1150 50  0001 C CNN
	1    2900 1150
	1    0    0    -1  
$EndComp
$Comp
L Device:R R1
U 1 1 605A92A0
P 2900 1350
F 0 "R1" H 2970 1396 50  0000 L CNN
F 1 "1K" H 2970 1305 50  0000 L CNN
F 2 "" V 2830 1350 50  0001 C CNN
F 3 "~" H 2900 1350 50  0001 C CNN
	1    2900 1350
	1    0    0    -1  
$EndComp
$Comp
L Device:R R2
U 1 1 605A9944
P 2900 1775
F 0 "R2" H 2970 1821 50  0000 L CNN
F 1 "150K" H 2970 1730 50  0000 L CNN
F 2 "" V 2830 1775 50  0001 C CNN
F 3 "~" H 2900 1775 50  0001 C CNN
	1    2900 1775
	1    0    0    -1  
$EndComp
$Comp
L Device:C C7
U 1 1 605AB4F2
P 2900 2200
F 0 "C7" H 3015 2246 50  0000 L CNN
F 1 "1000uF" H 3015 2155 50  0000 L CNN
F 2 "" H 2938 2050 50  0001 C CNN
F 3 "~" H 2900 2200 50  0001 C CNN
	1    2900 2200
	1    0    0    -1  
$EndComp
$Comp
L power:GND #PWR0110
U 1 1 605ABC40
P 2900 2500
F 0 "#PWR0110" H 2900 2250 50  0001 C CNN
F 1 "GND" H 2905 2327 50  0000 C CNN
F 2 "" H 2900 2500 50  0001 C CNN
F 3 "" H 2900 2500 50  0001 C CNN
	1    2900 2500
	1    0    0    -1  
$EndComp
Wire Wire Line
	2900 1150 2900 1200
Wire Wire Line
	2900 1500 2900 1575
Wire Wire Line
	2900 1925 2900 1950
Wire Wire Line
	2900 2350 2900 2500
Wire Wire Line
	2900 1575 2125 1575
Connection ~ 2900 1575
Wire Wire Line
	2900 1575 2900 1625
Wire Wire Line
	2900 1950 2125 1950
Connection ~ 2900 1950
Wire Wire Line
	2900 1950 2900 2050
Connection ~ 2125 1950
Wire Wire Line
	2125 1950 2125 2025
$Comp
L Timer:LM555xM U13
U 1 1 605B45AB
P 4775 1525
F 0 "U13" H 4925 1925 50  0000 C CNN
F 1 "LM555xM" H 4775 1525 50  0000 C CNN
F 2 "Package_SO:SOIC-8_3.9x4.9mm_P1.27mm" H 5625 1125 50  0001 C CNN
F 3 "http://www.ti.com/lit/ds/symlink/lm555.pdf" H 5625 1125 50  0001 C CNN
	1    4775 1525
	1    0    0    -1  
$EndComp
$Comp
L power:+5V #PWR0111
U 1 1 605B45B1
P 4775 1050
F 0 "#PWR0111" H 4775 900 50  0001 C CNN
F 1 "+5V" H 4790 1223 50  0000 C CNN
F 2 "" H 4775 1050 50  0001 C CNN
F 3 "" H 4775 1050 50  0001 C CNN
	1    4775 1050
	1    0    0    -1  
$EndComp
$Comp
L power:GND #PWR0112
U 1 1 605B45B7
P 4775 2000
F 0 "#PWR0112" H 4775 1750 50  0001 C CNN
F 1 "GND" H 4780 1827 50  0000 C CNN
F 2 "" H 4775 2000 50  0001 C CNN
F 3 "" H 4775 2000 50  0001 C CNN
	1    4775 2000
	1    0    0    -1  
$EndComp
Wire Wire Line
	4775 1050 4775 1125
Wire Wire Line
	4775 1925 4775 2000
NoConn ~ 4275 1525
Wire Wire Line
	5275 1725 5275 1900
Wire Wire Line
	5275 1975 4100 1975
Wire Wire Line
	4100 1975 4100 1325
Wire Wire Line
	4100 1325 4275 1325
$Comp
L power:+5V #PWR0113
U 1 1 605B45C4
P 3925 1700
F 0 "#PWR0113" H 3925 1550 50  0001 C CNN
F 1 "+5V" H 3940 1873 50  0000 C CNN
F 2 "" H 3925 1700 50  0001 C CNN
F 3 "" H 3925 1700 50  0001 C CNN
	1    3925 1700
	1    0    0    -1  
$EndComp
Wire Wire Line
	4275 1725 3925 1725
Wire Wire Line
	3925 1725 3925 1700
Text GLabel 5275 1325 2    50   Output ~ 0
clock_flipflop2
$Comp
L power:+5V #PWR0114
U 1 1 605B45CD
P 6050 1100
F 0 "#PWR0114" H 6050 950 50  0001 C CNN
F 1 "+5V" H 6065 1273 50  0000 C CNN
F 2 "" H 6050 1100 50  0001 C CNN
F 3 "" H 6050 1100 50  0001 C CNN
	1    6050 1100
	1    0    0    -1  
$EndComp
$Comp
L Device:R R3
U 1 1 605B45D3
P 6050 1300
F 0 "R3" H 6120 1346 50  0000 L CNN
F 1 "1K" H 6120 1255 50  0000 L CNN
F 2 "" V 5980 1300 50  0001 C CNN
F 3 "~" H 6050 1300 50  0001 C CNN
	1    6050 1300
	1    0    0    -1  
$EndComp
$Comp
L Device:R R4
U 1 1 605B45D9
P 6050 1725
F 0 "R4" H 6120 1771 50  0000 L CNN
F 1 "150K" H 6120 1680 50  0000 L CNN
F 2 "" V 5980 1725 50  0001 C CNN
F 3 "~" H 6050 1725 50  0001 C CNN
	1    6050 1725
	1    0    0    -1  
$EndComp
$Comp
L Device:C C8
U 1 1 605B45DF
P 6050 2150
F 0 "C8" H 6165 2196 50  0000 L CNN
F 1 "1000uF" H 6165 2105 50  0000 L CNN
F 2 "" H 6088 2000 50  0001 C CNN
F 3 "~" H 6050 2150 50  0001 C CNN
	1    6050 2150
	1    0    0    -1  
$EndComp
$Comp
L power:GND #PWR0115
U 1 1 605B45E5
P 6050 2450
F 0 "#PWR0115" H 6050 2200 50  0001 C CNN
F 1 "GND" H 6055 2277 50  0000 C CNN
F 2 "" H 6050 2450 50  0001 C CNN
F 3 "" H 6050 2450 50  0001 C CNN
	1    6050 2450
	1    0    0    -1  
$EndComp
Wire Wire Line
	6050 1100 6050 1150
Wire Wire Line
	6050 1450 6050 1525
Wire Wire Line
	6050 1875 6050 1900
Wire Wire Line
	6050 2300 6050 2450
Wire Wire Line
	6050 1525 5275 1525
Connection ~ 6050 1525
Wire Wire Line
	6050 1525 6050 1575
Wire Wire Line
	6050 1900 5275 1900
Connection ~ 6050 1900
Wire Wire Line
	6050 1900 6050 2000
Connection ~ 5275 1900
Wire Wire Line
	5275 1900 5275 1975
$EndSCHEMATC
