EESchema Schematic File Version 4
EELAYER 30 0
EELAYER END
$Descr A4 11693 8268
encoding utf-8
Sheet 5 7
Title ""
Date ""
Rev ""
Comp ""
Comment1 ""
Comment2 ""
Comment3 ""
Comment4 ""
$EndDescr
$Comp
L Transistor_FET:2N7002 Q1
U 1 1 606BC90D
P 2975 2250
F 0 "Q1" H 3179 2296 50  0000 L CNN
F 1 "2N7002" H 3179 2205 50  0000 L CNN
F 2 "Package_TO_SOT_SMD:SOT-23" H 3175 2175 50  0001 L CIN
F 3 "https://www.onsemi.com/pub/Collateral/NDS7002A-D.PDF" H 2975 2250 50  0001 L CNN
	1    2975 2250
	1    0    0    -1  
$EndComp
Text GLabel 3075 1925 2    50   Output ~ 0
EBS_Actuator1
$Comp
L power:GND #PWR0126
U 1 1 606D2A58
P 5075 2750
F 0 "#PWR0126" H 5075 2500 50  0001 C CNN
F 1 "GND" H 5080 2577 50  0000 C CNN
F 2 "" H 5075 2750 50  0001 C CNN
F 3 "" H 5075 2750 50  0001 C CNN
	1    5075 2750
	1    0    0    -1  
$EndComp
$Comp
L power:+24V #PWR0127
U 1 1 6074CEE0
P 3075 1600
F 0 "#PWR0127" H 3075 1450 50  0001 C CNN
F 1 "+24V" H 3090 1773 50  0000 C CNN
F 2 "" H 3075 1600 50  0001 C CNN
F 3 "" H 3075 1600 50  0001 C CNN
	1    3075 1600
	1    0    0    -1  
$EndComp
$Comp
L power:GND #PWR0128
U 1 1 6076436B
P 3075 2775
F 0 "#PWR0128" H 3075 2525 50  0001 C CNN
F 1 "GND" H 3080 2602 50  0000 C CNN
F 2 "" H 3075 2775 50  0001 C CNN
F 3 "" H 3075 2775 50  0001 C CNN
	1    3075 2775
	1    0    0    -1  
$EndComp
$Comp
L Simulation_SPICE:DIODE D2
U 1 1 60764373
P 3075 2625
F 0 "D2" V 3121 2545 50  0000 R CNN
F 1 "DIODE" V 3030 2545 50  0000 R CNN
F 2 "" H 3075 2625 50  0001 C CNN
F 3 "~" H 3075 2625 50  0001 C CNN
F 4 "Y" H 3075 2625 50  0001 L CNN "Spice_Netlist_Enabled"
F 5 "D" H 3075 2625 50  0001 L CNN "Spice_Primitive"
	1    3075 2625
	0    -1   -1   0   
$EndComp
Wire Wire Line
	3075 2450 3075 2475
Text GLabel 5075 1900 2    50   Output ~ 0
EBS_Actuator2
$Comp
L power:+24V #PWR0129
U 1 1 60797982
P 5075 1575
F 0 "#PWR0129" H 5075 1425 50  0001 C CNN
F 1 "+24V" H 5090 1748 50  0000 C CNN
F 2 "" H 5075 1575 50  0001 C CNN
F 3 "" H 5075 1575 50  0001 C CNN
	1    5075 1575
	1    0    0    -1  
$EndComp
Text Label 6750 1675 0    50   ~ 0
USAR_MOSFET_IRF840?
Wire Wire Line
	3075 1600 3075 2050
$Comp
L Transistor_FET:2N7002 Q?
U 1 1 60894113
P 4975 2225
F 0 "Q?" H 5179 2271 50  0000 L CNN
F 1 "2N7002" H 5179 2180 50  0000 L CNN
F 2 "Package_TO_SOT_SMD:SOT-23" H 5175 2150 50  0001 L CIN
F 3 "https://www.onsemi.com/pub/Collateral/NDS7002A-D.PDF" H 4975 2225 50  0001 L CNN
	1    4975 2225
	1    0    0    -1  
$EndComp
$Comp
L Simulation_SPICE:DIODE D?
U 1 1 6089411C
P 5075 2600
F 0 "D?" V 5121 2520 50  0000 R CNN
F 1 "DIODE" V 5030 2520 50  0000 R CNN
F 2 "" H 5075 2600 50  0001 C CNN
F 3 "~" H 5075 2600 50  0001 C CNN
F 4 "Y" H 5075 2600 50  0001 L CNN "Spice_Netlist_Enabled"
F 5 "D" H 5075 2600 50  0001 L CNN "Spice_Primitive"
	1    5075 2600
	0    -1   -1   0   
$EndComp
Wire Wire Line
	5075 1575 5075 2025
Wire Wire Line
	5075 2425 5075 2750
Text GLabel 4775 2225 0    50   Input ~ 0
Check_Actuator2
Text GLabel 2775 2250 0    50   Input ~ 0
Check_Actuator1
$EndSCHEMATC
