EESchema Schematic File Version 4
EELAYER 30 0
EELAYER END
$Descr A4 11693 8268
encoding utf-8
Sheet 6 7
Title ""
Date ""
Rev ""
Comp ""
Comment1 ""
Comment2 ""
Comment3 ""
Comment4 ""
$EndDescr
$Comp
L EBS-rescue:HT12D-HT12D U14
U 1 1 6076A4BF
P 5275 3975
AR Path="/6076A4BF" Ref="U14"  Part="1" 
AR Path="/6075169D/6076A4BF" Ref="U14"  Part="1" 
F 0 "U14" H 5275 4945 50  0000 C CNN
F 1 "HT12D" H 5275 4854 50  0000 C CNN
F 2 "DIP254P762X342-18" H 5275 3975 50  0001 L BNN
F 3 "" H 5275 3975 50  0001 L BNN
F 4 "HOLTEK" H 5275 3975 50  0001 L BNN "SUPPLIER"
F 5 "DIP-18" H 5275 3975 50  0001 L BNN "PACKAGE"
F 6 "HT12D" H 5275 3975 50  0001 L BNN "MPN"
F 7 "24M2761" H 5275 3975 50  0001 L BNN "OC_NEWARK"
F 8 "1211514" H 5275 3975 50  0001 L BNN "OC_FARNELL"
	1    5275 3975
	1    0    0    -1  
$EndComp
$Comp
L Connector_Generic:Conn_01x01 J2
U 1 1 6076D184
P 5150 2200
F 0 "J2" V 4975 2350 50  0000 R CNN
F 1 "Vcc" V 5150 2400 50  0000 R CNN
F 2 "" H 5150 2200 50  0001 C CNN
F 3 "~" H 5150 2200 50  0001 C CNN
	1    5150 2200
	0    -1   -1   0   
$EndComp
$Comp
L Connector_Generic:Conn_01x01 J3
U 1 1 6076E25A
P 5275 2200
F 0 "J3" V 5100 2175 50  0000 R CNN
F 1 "Data" V 5400 2325 50  0000 R CNN
F 2 "" H 5275 2200 50  0001 C CNN
F 3 "~" H 5275 2200 50  0001 C CNN
	1    5275 2200
	0    -1   -1   0   
$EndComp
$Comp
L Connector_Generic:Conn_01x01 J4
U 1 1 6076E5F4
P 5400 2200
F 0 "J4" V 5225 2175 50  0000 R CNN
F 1 "Data" V 5525 2250 50  0000 R CNN
F 2 "" H 5400 2200 50  0001 C CNN
F 3 "~" H 5400 2200 50  0001 C CNN
	1    5400 2200
	0    -1   -1   0   
$EndComp
$Comp
L Connector_Generic:Conn_01x01 J5
U 1 1 6076E8D1
P 5525 2200
F 0 "J5" V 5375 2125 50  0000 R CNN
F 1 "Gnd" V 5550 2125 50  0000 R CNN
F 2 "" H 5525 2200 50  0001 C CNN
F 3 "~" H 5525 2200 50  0001 C CNN
	1    5525 2200
	0    -1   -1   0   
$EndComp
$Comp
L power:GND #PWR0130
U 1 1 6076FA35
P 5525 2400
F 0 "#PWR0130" H 5525 2150 50  0001 C CNN
F 1 "GND" H 5530 2227 50  0000 C CNN
F 2 "" H 5525 2400 50  0001 C CNN
F 3 "" H 5525 2400 50  0001 C CNN
	1    5525 2400
	1    0    0    -1  
$EndComp
$Comp
L power:+5V #PWR0131
U 1 1 6076FE80
P 5150 2400
F 0 "#PWR0131" H 5150 2250 50  0001 C CNN
F 1 "+5V" H 5165 2573 50  0000 C CNN
F 2 "" H 5150 2400 50  0001 C CNN
F 3 "" H 5150 2400 50  0001 C CNN
	1    5150 2400
	-1   0    0    1   
$EndComp
Wire Wire Line
	4575 3675 4150 3675
Wire Wire Line
	4150 3675 4150 2775
Wire Wire Line
	4150 2775 5275 2775
Wire Wire Line
	5275 2775 5275 2525
Wire Wire Line
	5400 2400 5400 2525
Wire Wire Line
	5400 2525 5275 2525
Connection ~ 5275 2525
Wire Wire Line
	5275 2525 5275 2400
$Comp
L power:GND #PWR0132
U 1 1 60774A0C
P 4375 4900
F 0 "#PWR0132" H 4375 4650 50  0001 C CNN
F 1 "GND" H 4380 4727 50  0000 C CNN
F 2 "" H 4375 4900 50  0001 C CNN
F 3 "" H 4375 4900 50  0001 C CNN
	1    4375 4900
	1    0    0    -1  
$EndComp
Wire Wire Line
	4575 3875 4375 3875
Wire Wire Line
	4375 3875 4375 3975
Wire Wire Line
	4575 3975 4375 3975
Connection ~ 4375 3975
Wire Wire Line
	4375 3975 4375 4775
Wire Wire Line
	4575 4775 4375 4775
Connection ~ 4375 4775
Wire Wire Line
	4375 4775 4375 4900
$Comp
L power:+8V #PWR0133
U 1 1 60775446
P 4275 3375
F 0 "#PWR0133" H 4275 3225 50  0001 C CNN
F 1 "+8V" H 4290 3548 50  0000 C CNN
F 2 "" H 4275 3375 50  0001 C CNN
F 3 "" H 4275 3375 50  0001 C CNN
	1    4275 3375
	1    0    0    -1  
$EndComp
$Comp
L Device:R R6
U 1 1 60775A7E
P 5275 5375
F 0 "R6" V 5068 5375 50  0000 C CNN
F 1 "51K" V 5159 5375 50  0000 C CNN
F 2 "" V 5205 5375 50  0001 C CNN
F 3 "~" H 5275 5375 50  0001 C CNN
	1    5275 5375
	0    1    1    0   
$EndComp
Wire Wire Line
	4575 3575 4025 3575
Wire Wire Line
	4025 3575 4025 5375
Wire Wire Line
	4025 5375 5125 5375
Wire Wire Line
	5425 5375 6175 5375
Wire Wire Line
	6175 5375 6175 3475
Wire Wire Line
	6175 3475 5975 3475
$Comp
L Device:R R5
U 1 1 6077876C
P 4425 3375
F 0 "R5" V 4218 3375 50  0000 C CNN
F 1 "0R" V 4309 3375 50  0000 C CNN
F 2 "" V 4355 3375 50  0001 C CNN
F 3 "~" H 4425 3375 50  0001 C CNN
	1    4425 3375
	0    1    1    0   
$EndComp
$Comp
L Device:R R7
U 1 1 60779039
P 6525 3375
F 0 "R7" V 6318 3375 50  0000 C CNN
F 1 "220R" V 6409 3375 50  0000 C CNN
F 2 "" V 6455 3375 50  0001 C CNN
F 3 "~" H 6525 3375 50  0001 C CNN
	1    6525 3375
	0    1    1    0   
$EndComp
Wire Wire Line
	5975 3375 6375 3375
$Comp
L Device:LED D5
U 1 1 60779E9E
P 6925 3375
F 0 "D5" H 6918 3120 50  0000 C CNN
F 1 "LED" H 6918 3211 50  0000 C CNN
F 2 "" H 6925 3375 50  0001 C CNN
F 3 "~" H 6925 3375 50  0001 C CNN
	1    6925 3375
	-1   0    0    1   
$EndComp
Wire Wire Line
	6675 3375 6775 3375
$Comp
L power:GND #PWR0134
U 1 1 6077B1A7
P 7175 4900
F 0 "#PWR0134" H 7175 4650 50  0001 C CNN
F 1 "GND" H 7180 4727 50  0000 C CNN
F 2 "" H 7175 4900 50  0001 C CNN
F 3 "" H 7175 4900 50  0001 C CNN
	1    7175 4900
	1    0    0    -1  
$EndComp
Wire Wire Line
	7075 3375 7175 3375
Wire Wire Line
	7175 3375 7175 3675
Wire Wire Line
	5975 3675 7175 3675
Connection ~ 7175 3675
Wire Wire Line
	7175 3675 7175 3775
Wire Wire Line
	5975 3775 7175 3775
Connection ~ 7175 3775
Wire Wire Line
	7175 3775 7175 3875
Wire Wire Line
	5975 3875 7175 3875
Connection ~ 7175 3875
Wire Wire Line
	7175 3875 7175 3975
Wire Wire Line
	5975 3975 7175 3975
Connection ~ 7175 3975
Wire Wire Line
	7175 3975 7175 4900
Text GLabel 6550 3975 3    50   Output ~ 0
Radio_1
Text GLabel 6700 3875 3    50   Output ~ 0
Radio_2
Text GLabel 6850 3775 3    50   Output ~ 0
Radio_3
Text GLabel 6975 3675 3    50   Output ~ 0
Radio_4
NoConn ~ 4575 4075
NoConn ~ 4575 4175
NoConn ~ 4575 4275
NoConn ~ 4575 4375
NoConn ~ 4575 4475
NoConn ~ 4575 4575
$EndSCHEMATC
